digraph G {
	rankdir=LR;
	nodesep =1;
	splines = spline;
	overlap=false;
	fontname="CMU Serif";

	start [fontname="CMU Serif";label = "Start", shape = "plaintext" ];
	S0 [ fontname="CMU Serif";label = "State 0:\nPrint" ];

	start -> S0
	S0 -> S0 [ fontname="CMU Serif";label = "[ after(1000,runs) ]" ];
}